# Blender v2.66 (sub 1) OBJ File: 'EnergyEgg.blend'
# www.blender.org
mtllib EnergyEgg.mtl
o Sphere_Sphere.003
v -2.966198 1.706617 0.150619
v -3.196432 1.823232 0.150619
v -3.394138 2.008740 0.150619
v -3.545844 2.250499 0.150619
v -3.641209 2.532033 0.150619
v -3.673737 2.834157 0.150619
v -3.641210 3.136280 0.150619
v -3.545844 3.417814 0.150619
v -3.394138 3.659573 0.150619
v -2.966198 3.961696 0.150619
v -2.933097 1.706617 0.039900
v -3.132485 1.823232 -0.063274
v -3.303704 2.008740 -0.151871
v -3.435085 2.250499 -0.219854
v -3.517674 2.532033 -0.262590
v -3.545844 2.834156 -0.277167
v -3.517674 3.136280 -0.262590
v -3.435085 3.417814 -0.219854
v -3.303704 3.659573 -0.151871
v -3.132485 3.845081 -0.063274
v -2.933097 3.961696 0.039900
v -2.842663 1.706617 -0.041152
v -2.957779 1.823232 -0.219854
v -3.056633 2.008740 -0.373309
v -3.132485 2.250499 -0.491060
v -3.180168 2.532033 -0.565081
v -3.196432 2.834156 -0.590328
v -3.180168 3.136280 -0.565081
v -3.132485 3.417814 -0.491060
v -3.056633 3.659573 -0.373310
v -2.957780 3.845081 -0.219854
v -2.842663 3.961696 -0.041152
v -2.719127 1.706617 -0.070819
v -2.719127 1.823232 -0.277167
v -2.719127 2.008740 -0.454361
v -2.719127 2.250499 -0.590328
v -2.719127 2.532033 -0.675800
v -2.719127 2.834156 -0.704953
v -2.719127 3.136280 -0.675800
v -2.719127 3.417814 -0.590328
v -2.719127 3.659573 -0.454362
v -2.719127 3.845081 -0.277167
v -2.719127 3.961696 -0.070819
v -2.595592 1.706617 -0.041152
v -2.480475 1.823232 -0.219854
v -2.381622 2.008740 -0.373309
v -2.305769 2.250499 -0.491060
v -2.258086 2.532033 -0.565081
v -2.241822 2.834156 -0.590328
v -2.258086 3.136280 -0.565081
v -2.305769 3.417814 -0.491060
v -2.381621 3.659573 -0.373310
v -2.480474 3.845081 -0.219854
v -2.595592 3.961696 -0.041152
v -2.719127 1.666841 0.150620
v -2.505157 1.706617 0.039900
v -2.305769 1.823232 -0.063274
v -2.134550 2.008740 -0.151871
v -2.003170 2.250499 -0.219854
v -1.920580 2.532033 -0.262590
v -1.892411 2.834156 -0.277167
v -1.920580 3.136280 -0.262590
v -2.003170 3.417814 -0.219854
v -2.134550 3.659573 -0.151871
v -2.305769 3.845081 -0.063274
v -2.505157 3.961696 0.039900
v -2.472056 1.706617 0.150619
v -2.241822 1.823232 0.150619
v -2.044116 2.008740 0.150619
v -1.892411 2.250499 0.150619
v -1.797045 2.532033 0.150619
v -1.764517 2.834156 0.150619
v -1.797045 3.136280 0.150619
v -1.892411 3.417814 0.150619
v -2.044116 3.659573 0.150619
v -2.241822 3.845081 0.150619
v -2.472056 3.961696 0.150619
v -2.505157 1.706617 0.261339
v -2.305769 1.823232 0.364512
v -2.134551 2.008740 0.453110
v -2.003170 2.250499 0.521093
v -1.920580 2.532033 0.563829
v -1.892411 2.834156 0.578406
v -1.920580 3.136280 0.563829
v -2.003170 3.417814 0.521093
v -2.134550 3.659573 0.453110
v -2.305769 3.845081 0.364513
v -2.505157 3.961696 0.261339
v -2.595592 1.706617 0.342390
v -2.480475 1.823232 0.521093
v -2.381622 2.008740 0.674548
v -2.305769 2.250499 0.792299
v -2.258086 2.532033 0.866320
v -2.241822 2.834156 0.891567
v -2.258086 3.136280 0.866320
v -2.305769 3.417814 0.792299
v -2.381621 3.659573 0.674548
v -2.480474 3.845081 0.521093
v -2.595592 3.961696 0.342391
v -2.719127 4.001472 0.150619
v -2.719127 1.706617 0.372058
v -2.719127 1.823232 0.578405
v -2.719127 2.008740 0.755600
v -2.719127 2.250499 0.891567
v -2.719127 2.532033 0.977039
v -2.719127 2.834156 1.006192
v -2.719127 3.136280 0.977039
v -2.719127 3.417814 0.891567
v -2.719127 3.659573 0.755600
v -2.719127 3.845081 0.578406
v -2.719127 3.961696 0.372058
v -2.842663 1.706617 0.342390
v -2.957779 1.823232 0.521093
v -3.056633 2.008740 0.674548
v -3.132485 2.250499 0.792298
v -3.180168 2.532033 0.866320
v -3.196432 2.834156 0.891567
v -3.180168 3.136280 0.866320
v -3.132485 3.417814 0.792299
v -3.056633 3.659573 0.674548
v -2.957780 3.845081 0.521093
v -2.842663 3.961696 0.342391
v -2.933097 1.706617 0.261338
v -3.132485 1.823232 0.364512
v -3.303704 2.008740 0.453110
v -3.435084 2.250499 0.521093
v -3.517674 2.532033 0.563829
v -3.545844 2.834156 0.578405
v -3.517674 3.136280 0.563829
v -3.435085 3.417814 0.521093
v -3.303704 3.659573 0.453110
v -3.132485 3.845081 0.364513
v -2.933097 3.961696 0.261339
v -3.196432 3.845081 0.150619
vt 0.682835 0.216946
vt 0.674245 0.274333
vt 0.573390 0.280429
vt 0.578422 0.223256
vt 0.680381 0.156792
vt 0.579526 0.162887
vt 0.068916 0.237649
vt 0.103909 0.195392
vt 0.130406 0.210402
vt 0.120104 0.266647
vt 0.667051 0.097972
vt 0.576626 0.103436
vt 0.041777 0.275586
vt 0.114168 0.316595
vt 0.643752 0.044493
vt 0.569920 0.048955
vt 0.024343 0.306616
vt 0.113004 0.356842
vt 0.655197 0.325044
vt 0.564772 0.330509
vt 0.559865 0.003155
vt 0.485167 0.044530
vt 0.499936 0.000027
vt 0.460971 0.325090
vt 0.457615 0.274385
vt 0.950494 0.567898
vt 1.000000 0.584691
vt 0.971248 0.636359
vt 0.935611 0.594643
vt 0.458563 0.216999
vt 0.463751 0.156843
vt 0.161009 0.209887
vt 0.179224 0.265653
vt 0.472825 0.098018
vt 0.197777 0.315189
vt 0.553156 0.370083
vt 0.468403 0.365659
vt 0.357942 0.257822
vt 0.355374 0.199852
vt 0.364078 0.140280
vt 0.187518 0.193985
vt 0.230435 0.234932
vt 0.383461 0.083167
vt 0.270200 0.271743
vt 0.412202 0.032405
vt 0.215403 0.355119
vt 0.304103 0.301910
vt 0.998966 0.673874
vt 0.927212 0.715989
vt 0.920511 0.666138
vt 0.371607 0.310240
vt 0.909347 0.610058
vt 0.920982 0.305578
vt 0.862987 0.322135
vt 0.851334 0.221770
vt 0.910535 0.215593
vt 0.260014 0.182717
vt 0.312031 0.197900
vt 0.973093 0.279363
vt 0.964563 0.205890
vt 0.355336 0.211471
vt 0.843591 0.715865
vt 0.861382 0.666051
vt 0.745286 0.322496
vt 0.693602 0.306276
vt 0.683154 0.216290
vt 0.733634 0.222131
vt 0.878740 0.610012
vt 0.803060 0.327905
vt 0.790997 0.224000
vt 0.202829 0.166957
vt 0.910216 0.111651
vt 0.964303 0.121022
vt 0.312063 0.113446
vt 0.355374 0.108036
vt 0.770511 0.673536
vt 0.809706 0.636119
vt 0.682835 0.112349
vt 0.733278 0.106199
vt 0.851990 0.594519
vt 0.790628 0.103978
vt 0.850979 0.105838
vt 0.202840 0.136044
vt 0.260036 0.122999
vt 0.692730 0.022301
vt 0.744314 0.005764
vt 0.779329 0.584364
vt 0.836266 0.567728
vt 0.802054 0.000000
vt 0.862015 0.005403
vt 0.187549 0.109531
vt 0.230496 0.071779
vt 0.920111 0.021604
vt 0.270286 0.041009
vt 0.972382 0.047499
vt 0.304208 0.019319
vt 0.727551 0.600343
vt 0.352806 0.469104
vt 0.355374 0.527074
vt 0.252185 0.509926
vt 0.253134 0.452541
vt 0.161052 0.094521
vt 0.179307 0.042781
vt 0.339141 0.416686
vt 0.249777 0.401835
vt 0.197894 0.000000
vt 0.684460 0.614577
vt 0.682835 0.511154
vt 0.726224 0.515899
vt 0.327287 0.643758
vt 0.298547 0.694520
vt 0.225581 0.682395
vt 0.237923 0.628908
vt 0.778391 0.524653
vt 0.346670 0.586645
vt 0.246998 0.570082
vt 0.835781 0.536820
vt 0.137359 0.446497
vt 0.145976 0.396417
vt 0.210812 0.726899
vt 0.150883 0.723770
vt 0.140828 0.677971
vt 0.242345 0.361266
vt 0.157592 0.356842
vt 0.134122 0.623489
vt 0.766885 0.442830
vt 0.807143 0.472986
vt 0.131223 0.564038
vt 0.850663 0.510075
vt 0.132326 0.503669
vt 0.130449 0.095035
vt 0.120187 0.043775
vt 0.066997 0.682433
vt 0.043698 0.628954
vt 0.838639 0.400715
vt 0.857880 0.443206
vt 0.030367 0.570133
vt 0.876927 0.494660
vt 0.027913 0.509979
vt 0.036503 0.452592
vt 0.103941 0.110937
vt 0.068976 0.074496
vt 0.055552 0.401881
vt 0.098676 0.726925
vt 0.732635 0.421663
vt 0.820515 0.370083
vt 0.917009 0.443294
vt 0.907534 0.494705
vt 0.682835 0.569935
vt 0.680267 0.627905
vt 0.580595 0.644468
vt 0.579646 0.587082
vt 0.674131 0.510364
vt 0.574459 0.526927
vt 0.088629 0.137966
vt 0.039397 0.126711
vt 0.654748 0.453251
vt 0.565384 0.468101
vt 0.041863 0.044852
vt 0.000031 0.118695
vt 0.626008 0.402489
vt 0.553042 0.414614
vt 0.666602 0.680323
vt 0.642772 0.723617
vt 0.569806 0.735742
vt 0.577238 0.695173
vt 0.922260 0.400839
vt 0.459787 0.593339
vt 0.458684 0.532971
vt 0.088618 0.168878
vt 0.039375 0.186429
vt 0.461583 0.473520
vt 0.000000 0.203149
vt 0.468289 0.419038
vt 0.485053 0.740167
vt 0.473437 0.700592
vt 0.538274 0.370110
vt 0.478344 0.373238
vt 0.464820 0.650512
vt 0.968685 0.473225
vt 0.934284 0.510199
vt 0.144373 0.151693
vt 0.894481 0.551570
vt 0.950008 0.536989
vt 0.612072 0.000000
vt 0.999062 0.524980
vt 0.371159 0.468055
vt 0.394458 0.414576
vt 0.411222 0.735705
vt 0.383013 0.695127
vt 0.426137 0.370083
vt 0.363964 0.644417
vt 0.355374 0.587029
vt 0.357828 0.526875
usemtl Material.001
s 1
f 6/1 5/2 15/3 16/4
f 7/5 6/1 16/4 17/6
f 2/7 1/8 11/9 12/10
f 8/11 7/5 17/6 18/12
f 3/13 2/7 12/10 13/14
f 9/15 8/11 18/12 19/16
f 4/17 3/13 13/14 14/18
f 5/2 4/19 14/20 15/3
f 20/21 19/16 30/22 31/23
f 15/3 14/20 25/24 26/25
f 21/26 20/27 31/28 32/29
f 16/4 15/3 26/25 27/30
f 17/6 16/4 27/30 28/31
f 12/10 11/9 22/32 23/33
f 18/12 17/6 28/31 29/34
f 13/14 12/10 23/33 24/35
f 19/16 18/12 29/34 30/22
f 14/20 13/36 24/37 25/24
f 27/30 26/25 37/38 38/39
f 28/31 27/30 38/39 39/40
f 23/33 22/32 33/41 34/42
f 29/34 28/31 39/40 40/43
f 24/35 23/33 34/42 35/44
f 30/22 29/34 40/43 41/45
f 25/46 24/35 35/44 36/47
f 31/28 30/48 41/49 42/50
f 26/25 25/24 36/51 37/38
f 32/29 31/28 42/50 43/52
f 40/53 39/54 50/55 51/56
f 35/44 34/42 45/57 46/58
f 41/59 40/53 51/56 52/60
f 36/47 35/44 46/58 47/61
f 42/50 41/49 52/62 53/63
f 37/64 36/65 47/66 48/67
f 43/52 42/50 53/63 54/68
f 38/69 37/64 48/67 49/70
f 39/54 38/69 49/70 50/55
f 34/42 33/41 44/71 45/57
f 52/60 51/56 63/72 64/73
f 47/61 46/58 58/74 59/75
f 53/63 52/62 64/76 65/77
f 48/67 47/66 59/78 60/79
f 54/68 53/63 65/77 66/80
f 49/70 48/67 60/79 61/81
f 50/55 49/70 61/81 62/82
f 45/57 44/71 56/83 57/84
f 51/56 50/55 62/82 63/72
f 46/58 45/57 57/84 58/74
f 60/79 59/78 70/85 71/86
f 66/80 65/77 76/87 77/88
f 61/81 60/79 71/86 72/89
f 62/82 61/81 72/89 73/90
f 57/84 56/83 67/91 68/92
f 63/72 62/82 73/90 74/93
f 58/74 57/84 68/92 69/94
f 64/73 63/72 74/93 75/95
f 59/75 58/74 69/94 70/96
f 65/77 64/76 75/97 76/87
f 73/98 72/99 83/100 84/101
f 68/92 67/91 78/102 79/103
f 74/104 73/98 84/101 85/105
f 69/94 68/92 79/103 80/106
f 75/97 74/107 85/108 86/109
f 70/110 69/111 80/112 81/113
f 76/87 75/97 86/109 87/114
f 71/115 70/110 81/113 82/116
f 77/88 76/87 87/114 88/117
f 72/99 71/115 82/116 83/100
f 85/105 84/101 95/118 96/119
f 80/112 79/120 90/121 91/122
f 86/123 85/105 96/119 97/124
f 81/113 80/112 91/122 92/125
f 87/114 86/109 97/126 98/127
f 82/116 81/113 92/125 93/128
f 88/117 87/114 98/127 99/129
f 83/100 82/116 93/128 94/130
f 84/101 83/100 94/130 95/118
f 79/103 78/102 89/131 90/132
f 92/125 91/122 103/133 104/134
f 98/127 97/126 109/135 110/136
f 93/128 92/125 104/134 105/137
f 99/129 98/127 110/136 111/138
f 94/130 93/128 105/137 106/139
f 95/118 94/130 106/139 107/140
f 90/132 89/131 101/141 102/142
f 96/119 95/118 107/140 108/143
f 91/122 90/121 102/144 103/133
f 97/126 96/145 108/146 109/135
f 111/138 110/136 121/147 122/148
f 106/149 105/150 116/151 117/152
f 107/153 106/149 117/152 118/154
f 102/142 101/141 112/155 113/156
f 108/157 107/153 118/154 119/158
f 103/159 102/142 113/156 114/160
f 109/161 108/157 119/158 120/162
f 104/163 103/164 114/165 115/166
f 110/136 109/135 120/167 121/147
f 105/150 104/163 115/166 116/151
f 118/154 117/152 128/168 129/169
f 113/156 112/155 123/170 124/171
f 119/158 118/154 129/169 130/172
f 114/160 113/156 124/171 125/173
f 120/162 119/158 130/172 131/174
f 115/166 114/165 125/175 126/176
f 121/177 120/162 131/174 132/178
f 116/151 115/166 126/176 127/179
f 122/148 121/147 132/180 133/181
f 117/152 116/151 127/179 128/168
f 1/8 55/182 11/9
f 100/183 10/184 21/26
f 134/185 9/15 19/16 20/21
f 10/184 134/186 20/27 21/26
f 11/9 55/182 22/32
f 100/183 21/26 32/29
f 22/32 55/182 33/41
f 100/183 32/29 43/52
f 33/41 55/182 44/71
f 100/183 43/52 54/68
f 44/71 55/182 56/83
f 100/183 54/68 66/80
f 56/83 55/182 67/91
f 100/183 66/80 77/88
f 100/183 77/88 88/117
f 67/91 55/182 78/102
f 78/102 55/182 89/131
f 100/183 88/117 99/129
f 89/131 55/182 101/141
f 100/183 99/129 111/138
f 101/141 55/182 112/155
f 100/183 111/138 122/148
f 112/155 55/182 123/170
f 100/183 122/148 133/181
f 125/173 124/171 2/7 3/13
f 131/174 130/172 8/187 9/188
f 126/176 125/175 3/189 4/190
f 132/178 131/174 9/188 134/191
f 127/179 126/176 4/190 5/192
f 133/181 132/180 134/186 10/184
f 128/168 127/179 5/192 6/193
f 123/170 55/182 1/8
f 100/183 133/181 10/184
f 129/169 128/168 6/193 7/194
f 124/171 123/170 1/8 2/7
f 130/172 129/169 7/194 8/187
